<?xml version="1.0" encoding="UTF-8"?>
<svg width="89px" height="89px" viewBox="0 0 89 89" version="1.1" xmlns="http://www.w3.org/2000/svg" xmlns:xlink="http://www.w3.org/1999/xlink">
    <!-- Generator: Sketch 52.2 (67145) - http://www.bohemiancoding.com/sketch -->
    <title>Path</title>
    <desc>Created with Sketch.</desc>
    <defs>
        <filter x="-91.1%" y="-84.0%" width="282.3%" height="268.0%" filterUnits="objectBoundingBox" id="filter-1">
            <feOffset dx="0" dy="22" in="SourceAlpha" result="shadowOffsetOuter1"></feOffset>
            <feGaussianBlur stdDeviation="22.5" in="shadowOffsetOuter1" result="shadowBlurOuter1"></feGaussianBlur>
            <feColorMatrix values="0 0 0 0 0.533333333   0 0 0 0 0.580392157   0 0 0 0 0.635294118  0 0 0 0.2 0" type="matrix" in="shadowBlurOuter1" result="shadowMatrixOuter1"></feColorMatrix>
            <feMerge>
                <feMergeNode in="shadowMatrixOuter1"></feMergeNode>
                <feMergeNode in="SourceGraphic"></feMergeNode>
            </feMerge>
        </filter>
    </defs>
    <g id="Page-1" stroke="none" stroke-width="1" fill="none" fill-rule="evenodd" stroke-linecap="round" stroke-linejoin="round">
        <g id="7.-Home-Pesquisar" transform="translate(-104.000000, -267.000000)" stroke="#FB3B35">
            <g id="Group" transform="translate(30.000000, 160.000000)">
                <g id="1" filter="url(#filter-1)">
                    <g id="heart" transform="translate(109.000000, 123.000000)">
                        <path d="M17.5349224,1.41451605 C16.597313,0.508839521 15.3253774,-7.79453194e-16 13.999086,0 C12.6727947,3.89726597e-16 11.4008591,0.508839521 10.4632496,1.41451605 L9.49975689,2.3447575 L8.53626419,1.41451605 C6.58347565,-0.47087945 3.41737991,-0.470879427 1.4645914,1.4145161 C-0.488197113,3.29991163 -0.488197136,6.35674174 1.46459135,8.2421373 L2.42808405,9.17237875 L9.49975689,16 L16.5714297,9.17237875 L17.5349224,8.2421373 C18.4729721,7.33688581 19,6.10884618 19,4.82832667 C19,3.54780716 18.4729721,2.31976753 17.5349224,1.41451605 Z" id="Path"></path>
                    </g>
                </g>
            </g>
        </g>
    </g>
</svg>